%YAML 1.1
%TAG !u! tag:unity3d.com,2011:
--- !u!221 &22100000
AnimatorOverrideController:
  m_ObjectHideFlags: 0
  m_CorrespondingSourceObject: {fileID: 0}
  m_PrefabInstance: {fileID: 0}
  m_PrefabAsset: {fileID: 0}
  m_Name: EttinAnimator
  m_Controller: {fileID: 9100000, guid: c19f083f796d176479e6987a2252658c, type: 2}
  m_Clips:
  - m_OriginalClip: {fileID: 2963935870023100606, guid: f1ae8b59ec4c71a44af5b204bfee14a0,
      type: 3}
    m_OverrideClip: {fileID: -3288448270962003877, guid: c06c6f0cf7d63754f8586972b516d2ae,
      type: 3}
  - m_OriginalClip: {fileID: 4386617338944667320, guid: 29d5717060baa774e90d76e3e481760f,
      type: 3}
    m_OverrideClip: {fileID: -5270117749063975953, guid: b40e1b412336db346a3155daeb2d99bc,
      type: 3}
  - m_OriginalClip: {fileID: 3164356166384993448, guid: c31745036d175134982681c548ec0781,
      type: 3}
    m_OverrideClip: {fileID: 4880455204346209537, guid: 7767d8a6b4878164880a0d017a4fce3f,
      type: 3}
  - m_OriginalClip: {fileID: -5878616588946182826, guid: 306990359a3e02a4cb22c32521ae73a0,
      type: 3}
    m_OverrideClip: {fileID: -5043695715258250199, guid: 3d3ef7226836f714882dfc45dbd57717,
      type: 3}
  - m_OriginalClip: {fileID: -3245143052939374302, guid: 0b1dafedc9393204bb36f94211a702b7,
      type: 3}
    m_OverrideClip: {fileID: 4038824008474699490, guid: 3fc23828f1e48374c9ee4e2d0bb47fcd,
      type: 3}
  - m_OriginalClip: {fileID: -4103380772195243025, guid: f7d114a34b7631544a6e568c9aed7bff,
      type: 3}
    m_OverrideClip: {fileID: -8458653111994775851, guid: 0c750eb15a9218f40a5853ed171143ae,
      type: 3}
